simulation/qsim/socorro.msim.vcd
$comment
	File created using the following command:
		vcd file socorro.msim.vcd -direction
$end
$date
	Fri Nov  1 16:40:41 2019
$end
$version
	ModelSim Version 10.1d
$end
$timescale
	1ps
$end
$scope module pre_projeto_vlg_vec_tst $end
$var reg 18 ! SW [17:0] $end
$var wire 1 " HEX0 [6] $end
$var wire 1 # HEX0 [5] $end
$var wire 1 $ HEX0 [4] $end
$var wire 1 % HEX0 [3] $end
$var wire 1 & HEX0 [2] $end
$var wire 1 ' HEX0 [1] $end
$var wire 1 ( HEX0 [0] $end
$var wire 1 ) HEX1 [6] $end
$var wire 1 * HEX1 [5] $end
$var wire 1 + HEX1 [4] $end
$var wire 1 , HEX1 [3] $end
$var wire 1 - HEX1 [2] $end
$var wire 1 . HEX1 [1] $end
$var wire 1 / HEX1 [0] $end
$var wire 1 0 HEX2 [6] $end
$var wire 1 1 HEX2 [5] $end
$var wire 1 2 HEX2 [4] $end
$var wire 1 3 HEX2 [3] $end
$var wire 1 4 HEX2 [2] $end
$var wire 1 5 HEX2 [1] $end
$var wire 1 6 HEX2 [0] $end
$var wire 1 7 HEX3 [6] $end
$var wire 1 8 HEX3 [5] $end
$var wire 1 9 HEX3 [4] $end
$var wire 1 : HEX3 [3] $end
$var wire 1 ; HEX3 [2] $end
$var wire 1 < HEX3 [1] $end
$var wire 1 = HEX3 [0] $end
$var wire 1 > HEX4 [6] $end
$var wire 1 ? HEX4 [5] $end
$var wire 1 @ HEX4 [4] $end
$var wire 1 A HEX4 [3] $end
$var wire 1 B HEX4 [2] $end
$var wire 1 C HEX4 [1] $end
$var wire 1 D HEX4 [0] $end
$var wire 1 E HEX5 [6] $end
$var wire 1 F HEX5 [5] $end
$var wire 1 G HEX5 [4] $end
$var wire 1 H HEX5 [3] $end
$var wire 1 I HEX5 [2] $end
$var wire 1 J HEX5 [1] $end
$var wire 1 K HEX5 [0] $end
$var wire 1 L HEX6 [6] $end
$var wire 1 M HEX6 [5] $end
$var wire 1 N HEX6 [4] $end
$var wire 1 O HEX6 [3] $end
$var wire 1 P HEX6 [2] $end
$var wire 1 Q HEX6 [1] $end
$var wire 1 R HEX6 [0] $end
$var wire 1 S HEX7 [6] $end
$var wire 1 T HEX7 [5] $end
$var wire 1 U HEX7 [4] $end
$var wire 1 V HEX7 [3] $end
$var wire 1 W HEX7 [2] $end
$var wire 1 X HEX7 [1] $end
$var wire 1 Y HEX7 [0] $end
$var wire 1 Z sampler $end
$scope module i1 $end
$var wire 1 [ gnd $end
$var wire 1 \ vcc $end
$var wire 1 ] unknown $end
$var tri1 1 ^ devclrn $end
$var tri1 1 _ devpor $end
$var tri1 1 ` devoe $end
$var wire 1 a inst11|Add0~2_combout $end
$var wire 1 b inst8|inst1|S[2]~4_combout $end
$var wire 1 c inst8|inst1|S[4]~8_combout $end
$var wire 1 d inst8|inst1|S[5]~10_combout $end
$var wire 1 e inst9|inst1|S[1]~2_combout $end
$var wire 1 f inst8|inst5|inst|Y1~2_combout $end
$var wire 1 g inst8|inst5|inst|Y1~3_combout $end
$var wire 1 h inst8|inst1|Add0~3_combout $end
$var wire 1 i inst8|inst5|inst|Y3~1_combout $end
$var wire 1 j inst8|inst5|inst|Y3~2_combout $end
$var wire 1 k inst8|inst5|inst|Y3~3_combout $end
$var wire 1 l inst8|inst5|inst2|Y2~2_combout $end
$var wire 1 m inst8|inst5|inst2|Y3~0_combout $end
$var wire 1 n inst8|inst5|inst2|Y3~1_combout $end
$var wire 1 o inst8|inst5|inst2|Y3~2_combout $end
$var wire 1 p inst10|inst5|inst|Y3~0_combout $end
$var wire 1 q inst10|inst5|inst|SYNTHESIZED_WIRE_128~0_combout $end
$var wire 1 r inst10|inst5|inst|Y3~3_combout $end
$var wire 1 s inst10|inst5|inst2|Y1~0_combout $end
$var wire 1 t inst10|inst5|inst2|Y2~5_combout $end
$var wire 1 u inst10|inst5|inst2|Y2~6_combout $end
$var wire 1 v inst10|inst5|inst2|Y2~7_combout $end
$var wire 1 w inst10|inst5|inst2|Y2~8_combout $end
$var wire 1 x inst10|inst5|inst2|Y2~9_combout $end
$var wire 1 y inst10|inst5|inst2|Y2~10_combout $end
$var wire 1 z inst10|inst5|inst2|Y2~11_combout $end
$var wire 1 { inst10|inst5|inst2|Y3~2_combout $end
$var wire 1 | inst8|inst5|inst|Y4~0_combout $end
$var wire 1 } inst8|inst5|inst|Y5~0_combout $end
$var wire 1 ~ inst8|inst5|inst|Y4~1_combout $end
$var wire 1 !! inst8|inst5|inst|Y4~2_combout $end
$var wire 1 "! inst8|inst5|inst|Y4~3_combout $end
$var wire 1 #! inst8|inst5|inst3|Y1~0_combout $end
$var wire 1 $! inst10|inst5|inst|Y6~0_combout $end
$var wire 1 %! inst10|inst5|inst|Y4~0_combout $end
$var wire 1 &! inst10|inst5|inst|Y4~1_combout $end
$var wire 1 '! inst10|inst5|inst3|Y3~0_combout $end
$var wire 1 (! inst9|inst5|inst|Y3~0_combout $end
$var wire 1 )! inst9|inst1|Add0~5_combout $end
$var wire 1 *! inst9|inst5|inst2|Y1~0_combout $end
$var wire 1 +! inst9|inst5|inst2|Y1~1_combout $end
$var wire 1 ,! inst9|inst5|inst2|Y1~2_combout $end
$var wire 1 -! inst9|inst5|inst2|Y5~0_combout $end
$var wire 1 .! inst9|inst5|inst|Y4~0_combout $end
$var wire 1 /! inst9|inst5|inst3|Y2~0_combout $end
$var wire 1 0! inst10|inst5|inst2|Y2~12_combout $end
$var wire 1 1! inst10|inst5|inst2|Y2~13_combout $end
$var wire 1 2! inst8|inst5|inst2|Y1~19_combout $end
$var wire 1 3! inst8|inst5|inst|Y3~4_combout $end
$var wire 1 4! inst8|inst5|inst|Y3~5_combout $end
$var wire 1 5! inst11|Add0~1_cout $end
$var wire 1 6! inst11|Add0~3 $end
$var wire 1 7! inst11|Add0~5 $end
$var wire 1 8! inst11|Add0~7 $end
$var wire 1 9! inst11|Add0~9 $end
$var wire 1 :! inst11|Add0~10_combout $end
$var wire 1 ;! inst11|Add0~18_combout $end
$var wire 1 <! inst11|Add0~11 $end
$var wire 1 =! inst11|Add0~13 $end
$var wire 1 >! inst11|Add0~14_combout $end
$var wire 1 ?! inst11|Add0~16_combout $end
$var wire 1 @! inst11|Add0~8_combout $end
$var wire 1 A! inst11|Add0~19_combout $end
$var wire 1 B! inst11|Add0~6_combout $end
$var wire 1 C! inst11|Add0~20_combout $end
$var wire 1 D! inst11|Add0~4_combout $end
$var wire 1 E! inst11|Add0~21_combout $end
$var wire 1 F! inst10|inst1|S[0]~1_cout $end
$var wire 1 G! inst10|inst1|S[1]~3 $end
$var wire 1 H! inst10|inst1|S[2]~5 $end
$var wire 1 I! inst10|inst1|S[3]~7 $end
$var wire 1 J! inst10|inst1|S[4]~9 $end
$var wire 1 K! inst10|inst1|S[5]~10_combout $end
$var wire 1 L! inst10|inst1|Add0~2_combout $end
$var wire 1 M! inst10|inst1|S[4]~8_combout $end
$var wire 1 N! inst10|inst1|Add0~3_combout $end
$var wire 1 O! inst10|inst1|S[3]~6_combout $end
$var wire 1 P! inst11|Add0~12_combout $end
$var wire 1 Q! inst11|Add0~17_combout $end
$var wire 1 R! inst10|inst1|S[5]~11 $end
$var wire 1 S! inst10|inst1|S[6]~13 $end
$var wire 1 T! inst10|inst1|S[7]~14_combout $end
$var wire 1 U! inst10|inst5|inst|Y1~2_combout $end
$var wire 1 V! inst10|inst5|inst|Y1~3_combout $end
$var wire 1 W! inst10|inst5|inst|Y1~4_combout $end
$var wire 1 X! inst10|inst5|inst|Y1~0_combout $end
$var wire 1 Y! inst10|inst5|inst|Y1~1_combout $end
$var wire 1 Z! inst10|inst5|inst|Y1~5_combout $end
$var wire 1 [! inst11|Add0~22_combout $end
$var wire 1 \! inst10|inst1|S[1]~2_combout $end
$var wire 1 ]! inst10|inst1|Add0~7_combout $end
$var wire 1 ^! inst10|inst5|inst2|Y1~2_combout $end
$var wire 1 _! inst10|inst1|S[2]~4_combout $end
$var wire 1 `! inst10|inst1|Add0~6_combout $end
$var wire 1 a! inst10|inst1|Add0~8_combout $end
$var wire 1 b! inst10|inst1|Add0~5_combout $end
$var wire 1 c! inst10|inst5|inst|Y3~1_combout $end
$var wire 1 d! inst10|inst1|S[6]~12_combout $end
$var wire 1 e! inst10|inst1|Add0~4_combout $end
$var wire 1 f! inst10|inst5|inst|Y3~2_combout $end
$var wire 1 g! inst10|inst5|inst|Y3~4_combout $end
$var wire 1 h! inst10|inst5|inst|Y3~5_combout $end
$var wire 1 i! inst10|inst5|inst2|Y4~5_combout $end
$var wire 1 j! inst10|inst5|inst2|Y1~1_combout $end
$var wire 1 k! inst10|inst5|inst|Y2~3_combout $end
$var wire 1 l! inst10|inst5|inst|Y2~1_combout $end
$var wire 1 m! inst10|inst5|inst|Y2~0_combout $end
$var wire 1 n! inst10|inst5|inst|Y2~2_combout $end
$var wire 1 o! inst10|inst5|inst2|Y2~4_combout $end
$var wire 1 p! inst10|inst5|inst2|Y1~3_combout $end
$var wire 1 q! inst10|inst5|inst|Y2~4_combout $end
$var wire 1 r! inst10|inst5|inst2|Y3~0_combout $end
$var wire 1 s! inst10|inst5|inst2|Y3~1_combout $end
$var wire 1 t! inst10|inst5|inst2|SYNTHESIZED_WIRE_128~2_combout $end
$var wire 1 u! inst10|inst5|inst2|Y3~3_combout $end
$var wire 1 v! inst19|WideOr30~0_combout $end
$var wire 1 w! inst|S[0]~1 $end
$var wire 1 x! inst|S[1]~3 $end
$var wire 1 y! inst|S[2]~5 $end
$var wire 1 z! inst|S[3]~7 $end
$var wire 1 {! inst|S[4]~9 $end
$var wire 1 |! inst|S[5]~11 $end
$var wire 1 }! inst|S[6]~13 $end
$var wire 1 ~! inst|S[7]~14_combout $end
$var wire 1 !" inst19|led2[1]~4_combout $end
$var wire 1 "" inst|S[2]~4_combout $end
$var wire 1 #" inst8|inst1|Add0~6_combout $end
$var wire 1 $" inst|S[6]~12_combout $end
$var wire 1 %" inst|S[5]~10_combout $end
$var wire 1 &" inst|S[3]~6_combout $end
$var wire 1 '" inst|S[1]~2_combout $end
$var wire 1 (" inst8|inst1|S[0]~1_cout $end
$var wire 1 )" inst8|inst1|S[1]~3 $end
$var wire 1 *" inst8|inst1|S[2]~5 $end
$var wire 1 +" inst8|inst1|S[3]~7 $end
$var wire 1 ," inst8|inst1|S[4]~9 $end
$var wire 1 -" inst8|inst1|S[5]~11 $end
$var wire 1 ." inst8|inst1|S[6]~13 $end
$var wire 1 /" inst8|inst1|S[7]~14_combout $end
$var wire 1 0" inst8|inst1|Add0~5_combout $end
$var wire 1 1" inst|S[4]~8_combout $end
$var wire 1 2" inst8|inst1|Add0~1_combout $end
$var wire 1 3" inst8|inst1|Add0~0_combout $end
$var wire 1 4" inst8|inst5|inst|Y2~3_combout $end
$var wire 1 5" inst8|inst5|inst|Y2~1_combout $end
$var wire 1 6" inst8|inst5|inst|Y2~0_combout $end
$var wire 1 7" inst8|inst5|inst|Y2~2_combout $end
$var wire 1 8" inst8|inst5|inst2|Y2~0_combout $end
$var wire 1 9" inst8|inst1|S[1]~2_combout $end
$var wire 1 :" inst8|inst1|Add0~4_combout $end
$var wire 1 ;" inst8|inst1|S[6]~12_combout $end
$var wire 1 <" inst8|inst5|inst|Y3~0_combout $end
$var wire 1 =" inst8|inst5|inst|Y1~4_combout $end
$var wire 1 >" inst8|inst1|Add0~2_combout $end
$var wire 1 ?" inst8|inst1|S[3]~6_combout $end
$var wire 1 @" inst8|inst5|inst|Y1~0_combout $end
$var wire 1 A" inst8|inst5|inst|Y1~1_combout $end
$var wire 1 B" inst8|inst5|inst|Y1~5_combout $end
$var wire 1 C" inst8|inst5|inst|Y2~4_combout $end
$var wire 1 D" inst8|inst5|inst2|Y2~1_combout $end
$var wire 1 E" inst8|inst5|inst2|Y2~3_combout $end
$var wire 1 F" inst|S[0]~0_combout $end
$var wire 1 G" inst8|inst5|inst2|Y1~17_combout $end
$var wire 1 H" inst8|inst5|inst2|Y1~12_combout $end
$var wire 1 I" inst8|inst5|inst2|Y1~14_combout $end
$var wire 1 J" inst8|inst5|inst2|Y1~18_combout $end
$var wire 1 K" inst8|inst5|inst2|Y1~13_combout $end
$var wire 1 L" inst8|inst5|inst2|Y1~16_combout $end
$var wire 1 M" inst19|WideOr6~0_combout $end
$var wire 1 N" inst19|led0[6]~0_combout $end
$var wire 1 O" inst19|WideOr31~0_combout $end
$var wire 1 P" inst19|WideOr7~0_combout $end
$var wire 1 Q" inst19|led0[5]~1_combout $end
$var wire 1 R" inst19|WideOr32~0_combout $end
$var wire 1 S" inst19|WideOr8~0_combout $end
$var wire 1 T" inst19|led0[4]~2_combout $end
$var wire 1 U" inst19|WideOr9~0_combout $end
$var wire 1 V" inst19|WideOr33~0_combout $end
$var wire 1 W" inst19|led0[3]~3_combout $end
$var wire 1 X" inst19|WideOr34~0_combout $end
$var wire 1 Y" inst19|WideOr10~0_combout $end
$var wire 1 Z" inst19|led0[2]~4_combout $end
$var wire 1 [" inst19|bcd_to_led~0_combout $end
$var wire 1 \" inst19|bcd_to_led~1_combout $end
$var wire 1 ]" inst19|led0[1]~5_combout $end
$var wire 1 ^" inst19|WideOr35~0_combout $end
$var wire 1 _" inst19|WideOr11~0_combout $end
$var wire 1 `" inst19|led0[0]~6_combout $end
$var wire 1 a" inst10|inst5|inst|Y4~2_combout $end
$var wire 1 b" inst10|inst5|inst|Y4~3_combout $end
$var wire 1 c" inst10|inst5|inst|Y4~4_combout $end
$var wire 1 d" inst10|inst5|inst|Y5~0_combout $end
$var wire 1 e" inst10|inst5|inst2|Y5~0_combout $end
$var wire 1 f" inst10|inst5|inst3|Y2~0_combout $end
$var wire 1 g" inst10|inst5|inst2|Y4~2_combout $end
$var wire 1 h" inst10|inst5|inst2|Y4~3_combout $end
$var wire 1 i" inst10|inst5|inst2|Y4~4_combout $end
$var wire 1 j" inst10|inst5|inst3|Y1~0_combout $end
$var wire 1 k" inst19|WideOr24~0_combout $end
$var wire 1 l" inst8|inst5|inst|Y6~0_combout $end
$var wire 1 m" inst8|inst5|inst|Y5~1_combout $end
$var wire 1 n" inst8|inst5|inst2|Y5~0_combout $end
$var wire 1 o" inst8|inst5|inst3|Y2~0_combout $end
$var wire 1 p" inst8|inst5|inst2|Y4~0_combout $end
$var wire 1 q" inst8|inst5|inst2|Y4~1_combout $end
$var wire 1 r" inst8|inst5|inst2|Y1~15_combout $end
$var wire 1 s" inst8|inst5|inst2|Y4~2_combout $end
$var wire 1 t" inst8|inst5|inst3|Y3~0_combout $end
$var wire 1 u" inst19|WideOr0~0_combout $end
$var wire 1 v" inst19|led1[6]~0_combout $end
$var wire 1 w" inst19|WideOr25~0_combout $end
$var wire 1 x" inst19|WideOr1~0_combout $end
$var wire 1 y" inst19|led1[5]~1_combout $end
$var wire 1 z" inst19|WideOr2~0_combout $end
$var wire 1 {" inst19|WideOr26~0_combout $end
$var wire 1 |" inst19|led1[4]~2_combout $end
$var wire 1 }" inst19|WideOr27~0_combout $end
$var wire 1 ~" inst19|WideOr3~0_combout $end
$var wire 1 !# inst19|led1[3]~3_combout $end
$var wire 1 "# inst19|WideOr28~0_combout $end
$var wire 1 ## inst19|WideOr4~0_combout $end
$var wire 1 $# inst19|led1[2]~4_combout $end
$var wire 1 %# inst19|bcd_to_led~3_combout $end
$var wire 1 &# inst19|bcd_to_led~2_combout $end
$var wire 1 '# inst19|led1[1]~5_combout $end
$var wire 1 (# inst19|WideOr5~0_combout $end
$var wire 1 )# inst19|WideOr29~0_combout $end
$var wire 1 *# inst19|led1[0]~6_combout $end
$var wire 1 +# inst19|led2[3]~5_combout $end
$var wire 1 ,# inst19|led2[3]~6_combout $end
$var wire 1 -# inst19|led2[6]~7_combout $end
$var wire 1 .# inst8|inst5|inst3|Y4~0_combout $end
$var wire 1 /# inst10|inst5|inst3|Y4~0_combout $end
$var wire 1 0# inst19|led2[5]~8_combout $end
$var wire 1 1# inst19|led2[5]~9_combout $end
$var wire 1 2# inst19|led2[4]~10_combout $end
$var wire 1 3# inst19|led2[3]~11_combout $end
$var wire 1 4# inst19|led2[3]~12_combout $end
$var wire 1 5# inst19|led2[2]~15_combout $end
$var wire 1 6# inst19|led2[2]~14_combout $end
$var wire 1 7# inst19|led2[2]~13_combout $end
$var wire 1 8# inst19|led3[6]~0_combout $end
$var wire 1 9# inst9|inst1|S[0]~1_cout $end
$var wire 1 :# inst9|inst1|S[1]~3 $end
$var wire 1 ;# inst9|inst1|S[2]~5 $end
$var wire 1 <# inst9|inst1|S[3]~7 $end
$var wire 1 =# inst9|inst1|S[4]~9 $end
$var wire 1 ># inst9|inst1|S[5]~11 $end
$var wire 1 ?# inst9|inst1|S[6]~13 $end
$var wire 1 @# inst9|inst1|S[7]~14_combout $end
$var wire 1 A# inst9|inst1|S[5]~10_combout $end
$var wire 1 B# inst9|inst1|Add0~0_combout $end
$var wire 1 C# inst9|inst1|S[3]~6_combout $end
$var wire 1 D# inst9|inst1|Add0~4_combout $end
$var wire 1 E# inst9|inst5|inst|Y1~4_combout $end
$var wire 1 F# inst9|inst1|S[6]~12_combout $end
$var wire 1 G# inst9|inst1|Add0~1_combout $end
$var wire 1 H# inst9|inst5|inst|Y1~2_combout $end
$var wire 1 I# inst9|inst5|inst|Y1~0_combout $end
$var wire 1 J# inst9|inst5|inst|Y1~1_combout $end
$var wire 1 K# inst9|inst1|S[4]~8_combout $end
$var wire 1 L# inst9|inst1|Add0~2_combout $end
$var wire 1 M# inst9|inst5|inst|Y1~3_combout $end
$var wire 1 N# inst9|inst5|inst|Y1~5_combout $end
$var wire 1 O# inst9|inst1|S[2]~4_combout $end
$var wire 1 P# inst9|inst1|Add0~6_combout $end
$var wire 1 Q# inst9|inst1|Add0~3_combout $end
$var wire 1 R# inst9|inst5|inst|Y3~1_combout $end
$var wire 1 S# inst9|inst5|inst|Y3~2_combout $end
$var wire 1 T# inst9|inst5|inst2|Y3~0_combout $end
$var wire 1 U# inst9|inst5|inst|Y2~3_combout $end
$var wire 1 V# inst9|inst5|inst|Y2~1_combout $end
$var wire 1 W# inst9|inst5|inst|Y2~0_combout $end
$var wire 1 X# inst9|inst5|inst|Y2~2_combout $end
$var wire 1 Y# inst9|inst5|inst|Y2~4_combout $end
$var wire 1 Z# inst9|inst5|inst2|Y3~1_combout $end
$var wire 1 [# inst9|inst5|inst2|Y3~2_combout $end
$var wire 1 \# inst9|inst5|inst2|Y2~1_combout $end
$var wire 1 ]# inst9|inst5|inst2|Y2~0_combout $end
$var wire 1 ^# inst9|inst5|inst2|Y2~2_combout $end
$var wire 1 _# inst19|WideOr18~0_combout $end
$var wire 1 `# inst19|led4[6]~0_combout $end
$var wire 1 a# inst19|WideOr19~0_combout $end
$var wire 1 b# inst19|led4[5]~1_combout $end
$var wire 1 c# inst19|WideOr20~0_combout $end
$var wire 1 d# inst19|led4[4]~2_combout $end
$var wire 1 e# inst19|WideOr21~0_combout $end
$var wire 1 f# inst19|led4[3]~3_combout $end
$var wire 1 g# inst19|WideOr22~0_combout $end
$var wire 1 h# inst19|led4[2]~4_combout $end
$var wire 1 i# inst19|bcd_to_led~4_combout $end
$var wire 1 j# inst19|led4[1]~5_combout $end
$var wire 1 k# inst19|WideOr23~0_combout $end
$var wire 1 l# inst19|led4[0]~6_combout $end
$var wire 1 m# inst9|inst5|inst|Y4~1_combout $end
$var wire 1 n# inst9|inst5|inst|Y4~2_combout $end
$var wire 1 o# inst9|inst5|inst|Y4~3_combout $end
$var wire 1 p# inst9|inst5|inst|Y4~4_combout $end
$var wire 1 q# inst9|inst5|inst|Y5~0_combout $end
$var wire 1 r# inst9|inst5|inst|Y6~0_combout $end
$var wire 1 s# inst9|inst5|inst3|Y3~0_combout $end
$var wire 1 t# inst9|inst5|inst3|Y1~0_combout $end
$var wire 1 u# inst9|inst5|inst2|Y4~0_combout $end
$var wire 1 v# inst9|inst5|inst2|Y4~1_combout $end
$var wire 1 w# inst19|WideOr12~0_combout $end
$var wire 1 x# inst19|led5[6]~0_combout $end
$var wire 1 y# inst19|WideOr13~0_combout $end
$var wire 1 z# inst19|led5[5]~1_combout $end
$var wire 1 {# inst19|WideOr14~0_combout $end
$var wire 1 |# inst19|led5[4]~2_combout $end
$var wire 1 }# inst19|WideOr15~0_combout $end
$var wire 1 ~# inst19|led5[3]~3_combout $end
$var wire 1 !$ inst19|WideOr16~0_combout $end
$var wire 1 "$ inst19|led5[2]~4_combout $end
$var wire 1 #$ inst19|bcd_to_led~5_combout $end
$var wire 1 $$ inst19|led5[1]~5_combout $end
$var wire 1 %$ inst19|WideOr17~0_combout $end
$var wire 1 &$ inst19|led5[0]~6_combout $end
$var wire 1 '$ inst19|led6[6]~0_combout $end
$var wire 1 ($ inst9|inst5|inst3|Y5~0_combout $end
$var wire 1 )$ inst9|inst5|inst3|Y4~0_combout $end
$var wire 1 *$ inst19|led6[5]~1_combout $end
$var wire 1 +$ inst19|led6[4]~2_combout $end
$var wire 1 ,$ inst19|led6[3]~3_combout $end
$var wire 1 -$ inst19|led6[2]~4_combout $end
$var wire 1 .$ inst19|led7[6]~0_combout $end
$var wire 1 /$ SW~combout [17] $end
$var wire 1 0$ SW~combout [16] $end
$var wire 1 1$ SW~combout [15] $end
$var wire 1 2$ SW~combout [14] $end
$var wire 1 3$ SW~combout [13] $end
$var wire 1 4$ SW~combout [12] $end
$var wire 1 5$ SW~combout [11] $end
$var wire 1 6$ SW~combout [10] $end
$var wire 1 7$ SW~combout [9] $end
$var wire 1 8$ SW~combout [8] $end
$var wire 1 9$ SW~combout [7] $end
$var wire 1 :$ SW~combout [6] $end
$var wire 1 ;$ SW~combout [5] $end
$var wire 1 <$ SW~combout [4] $end
$var wire 1 =$ SW~combout [3] $end
$var wire 1 >$ SW~combout [2] $end
$var wire 1 ?$ SW~combout [1] $end
$var wire 1 @$ SW~combout [0] $end
$upscope $end
$upscope $end
$enddefinitions $end
#0
$dumpvars
b10000010100001010 !
x(
x'
x&
x%
x$
x#
x"
x/
x.
x-
x,
x+
x*
x)
x6
x5
x4
x3
x2
x1
x0
x=
1<
1;
x:
x9
x8
x7
xD
xC
xB
xA
x@
x?
x>
xK
xJ
xI
xH
xG
xF
xE
xR
xQ
xP
xO
xN
xM
xL
1Y
1X
1W
1V
1U
1T
xS
xZ
0[
1\
x]
1^
1_
1`
xa
xb
xc
xd
xe
xf
xg
xh
xi
xj
xk
xl
xm
xn
xo
xp
xq
xr
xs
xt
xu
xv
xw
xx
xy
xz
x{
x|
x}
x~
x!!
x"!
x#!
x$!
x%!
x&!
x'!
x(!
x)!
x*!
x+!
x,!
x-!
x.!
x/!
x0!
x1!
x2!
x3!
x4!
x5!
x6!
x7!
x8!
x9!
x:!
x;!
x<!
x=!
x>!
x?!
x@!
xA!
xB!
xC!
xD!
xE!
xF!
xG!
xH!
xI!
xJ!
xK!
xL!
xM!
xN!
xO!
xP!
xQ!
xR!
xS!
xT!
xU!
xV!
xW!
xX!
xY!
xZ!
x[!
x\!
x]!
x^!
x_!
x`!
xa!
xb!
xc!
xd!
xe!
xf!
xg!
xh!
xi!
xj!
xk!
xl!
xm!
xn!
xo!
xp!
xq!
xr!
xs!
xt!
xu!
xv!
xw!
xx!
xy!
xz!
x{!
x|!
x}!
x~!
x!"
x""
x#"
x$"
x%"
x&"
x'"
x("
x)"
x*"
x+"
x,"
x-"
x."
x/"
x0"
x1"
x2"
x3"
x4"
x5"
x6"
x7"
x8"
x9"
x:"
x;"
x<"
x="
x>"
x?"
x@"
xA"
xB"
xC"
xD"
xE"
xF"
xG"
xH"
xI"
xJ"
xK"
xL"
xM"
xN"
xO"
xP"
xQ"
xR"
xS"
xT"
xU"
xV"
xW"
xX"
xY"
xZ"
x["
x\"
x]"
x^"
x_"
x`"
xa"
xb"
xc"
xd"
xe"
xf"
xg"
xh"
xi"
xj"
xk"
xl"
xm"
xn"
xo"
xp"
xq"
xr"
xs"
xt"
xu"
xv"
xw"
xx"
xy"
xz"
x{"
x|"
x}"
x~"
x!#
x"#
x##
x$#
x%#
x&#
x'#
x(#
x)#
x*#
x+#
x,#
x-#
x.#
x/#
x0#
x1#
x2#
x3#
x4#
x5#
x6#
x7#
x8#
x9#
x:#
x;#
x<#
x=#
x>#
x?#
x@#
xA#
xB#
xC#
xD#
xE#
xF#
xG#
xH#
xI#
xJ#
xK#
xL#
xM#
xN#
xO#
xP#
xQ#
xR#
xS#
xT#
xU#
xV#
xW#
xX#
xY#
xZ#
x[#
x\#
x]#
x^#
x_#
x`#
xa#
xb#
xc#
xd#
xe#
xf#
xg#
xh#
xi#
xj#
xk#
xl#
xm#
xn#
xo#
xp#
xq#
xr#
xs#
xt#
xu#
xv#
xw#
xx#
xy#
xz#
x{#
x|#
x}#
x~#
x!$
x"$
x#$
x$$
x%$
x&$
x'$
x($
x)$
x*$
x+$
x,$
x-$
x.$
0@$
1?$
0>$
1=$
0<$
0;$
0:$
09$
18$
07$
16$
05$
04$
03$
02$
01$
10$
0/$
$end
#1298
0;#
#1369
1<#
#1440
0=#
#1478
18!
#1511
1>#
#1549
09!
#1582
0?#
#1708
1<!
1C#
#1779
0=!
1K#
#1888
1@!
#1959
1:!
#2019
1>!
#2118
1P!
#2196
15!
#2233
1F!
#2240
0w!
#2253
1F"
#2311
1x!
#2456
16!
#2516
1c#
#2527
07!
#2606
1a
#2659
09#
#2730
1:#
#2866
1D!
#2901
1d#
#2937
0B!
#2945
0("
#3016
1)"
#3087
0*"
#3140
0O#
#3158
1+"
#3229
0,"
#3237
1e
#3300
1-"
#3313
1[!
#3371
0."
#3516
1S"
#4229
1\!
#4295
1G!
#4366
0H!
#4437
1I!
#4508
0J!
#4579
1R!
#4650
0S!
#4686
1'"
#5143
1]!
#5213
0Q#
#5365
09"
#5368
0D#
#5373
0G#
#5426
0B#
#5448
0i!
#5458
1F#
#5471
0)!
#5485
0m#
#5495
1P#
#5511
1@#
#5513
1I#
#5514
0r#
#5517
0L#
#5531
1.$
#5570
1A#
#5721
0y
#5837
0,#
#5850
0j!
#5968
0J#
#5982
0E#
0H#
#5984
1A!
#5986
0C!
#5994
1?!
#6005
1@
#6010
0R#
#6011
0q#
#6013
1Q!
#6014
1;!
#6019
1E!
#6072
0*!
0Z#
#6090
0n#
#6204
0!"
#6252
1W#
#6254
1V#
#6257
0(!
#6258
1.!
#6400
1o#
#6537
0X#
#6659
1'$
#6661
0($
#6722
1U#
#6851
0M!
#6864
0M#
#6896
1O!
#6906
0d!
#6922
0K!
#6959
0S#
#6960
1p#
#6982
0T!
#7036
0Y#
#7091
0_!
#7188
1y!
#7212
0""
#7282
0s#
#7287
1)$
#7311
1b!
#7333
0L!
#7343
0-$
#7361
0N#
#7388
0N!
#7393
1z!
#7445
0&!
#7449
0p
0e!
#7459
08#
#7464
0{!
#7535
1|!
#7563
0\#
#7598
1&"
#7606
0}!
#7607
0q
#7631
0$!
#7680
1+!
#7697
0*$
#7701
0,$
1+$
#7706
0a!
#7770
0Q
#7803
11"
#7846
1U!
#7847
0X!
#7874
1%"
#7897
1b
#7945
1$"
#7984
0-!
#7990
0T#
#8016
0~!
#8069
0]#
#8070
1u#
#8079
0,!
#8191
0t
0`!
#8276
0?"
#8361
0c!
#8371
0b"
#8374
0/!
#8421
0/"
#8431
0r
#8456
1^#
#8459
1l!
#8469
1k!
#8487
0c
#8506
0g!
#8512
0f!
#8521
0Y!
#8527
0a"
#8555
0d
#8579
0d"
#8593
0;"
#8599
1v#
#8600
0V!
#8607
0n!
#8641
0m!
#8683
0[#
#8756
1W!
#8819
1%!
#8845
00!
#9012
0h!
#9042
0u
#9062
1+#
#9074
0w
#9085
1#"
#9092
06#
#9132
1_#
#9139
0a#
#9205
0t#
#9206
1S
#9276
1Z!
#9368
00"
#9380
02"
#9400
0h
#9417
0:"
#9445
03"
#9452
02!
#9469
0q!
#9497
0r"
#9523
0}
#9524
0i
#9525
0b#
1%$
#9526
1c"
1{#
#9528
1}#
#9584
1i#
#9601
0#$
#9632
0e#
#9633
0k#
#9638
0g#
#9664
0`#
#9705
1@"
#9708
0f
#9710
0o!
#9712
0l"
#9759
0H"
#9798
0<"
#9803
0>"
#9869
0e"
0n
#9891
0'!
#9901
0/#
#9916
01!
#9918
0~#
#9942
1s!
#9972
1j#
#9974
0w#
#9979
1y#
#9980
0!$
#9990
0$$
#10052
0|#
#10054
0&$
#10079
07#
#10117
0="
#10131
0h#
#10133
0f#
#10134
0l#
#10138
0h"
#10255
1-#
#10273
1g"
#10275
1L
#10296
1t!
#10297
1r!
#10312
0x
#10342
16"
#10364
1x#
#10379
0~
#10381
0m"
#10390
15"
#10391
03!
#10392
0{
#10396
0j
#10414
0^!
#10437
0P
#10444
0s
#10475
0g
#10476
0k
#10478
0"$
#10505
0z#
#10584
0A"
#10590
0v
#10739
07"
#10763
1|
#10768
14"
#10814
0R
#10904
03#
#10908
02#
#10910
10#
#10922
04!
#10941
0i"
#10966
0u!
#10980
0B"
#10990
0f"
#11063
05#
#11099
0j"
#11140
08"
#11144
0C"
#11145
0p!
#11200
05
#11228
1!!
#11311
0M
#11317
0z
#11334
01#
#11343
0N
#11364
0O
#11385
0t"
#11390
0.#
#11465
1"!
#11503
19
1:
#11504
1=
#11519
18
#11537
0k"
#11539
0"#
#11616
04#
#11695
0%#
#11781
0l
#12007
0K"
#12009
0D"
#12011
0m
0p"
#12012
1s"
#12065
0o
#12080
1J"
#12094
0q"
#12119
0n"
#12127
0I"
#12131
0G"
#12273
0)#
#12275
0}"
#12278
0{"
#12283
0w"
#12400
0O"
#12401
0X"
#12414
07
0\"
#12427
0$#
#12566
0R"
#12567
0v!
0^"
#12572
0V"
#12586
1E"
